Quickly Extract and Marginalize U.S. Census Tables • easycensus
…
We can see right away that our best bet is either table P012 or table PCT012, depending on whether we want age in 5-year groups or down to individual years. Let’s say you’re OK with the five-year bins. Then all you need to do to get your data is to call get_dec_table().

d_cens = get_dec_table("tract", "P012", state="AK", county="Nome")
print(d_cens)
#> # A tibble: 9,600 × 7
#>    GEOID       NAME                    variable value sex   age   race_ethnicity
#>    <chr>       <chr>                   <chr>    <dbl> <fct> <fct> <fct>         
#>  1 02180000100 Census Tract 1, Nome C… P012002   3053 male  total total         
#>  2 02180000200 Census Tract 2, Nome C… P012002   2005 male  total total         
#>  3 02180000100 Census Tract 1, Nome C… P012003    359 male  unde… total         
#>  4 02180000200 Census Tract 2, Nome C… P012003    175 male  unde… total         
#>  5 02180000100 Census Tract 1, Nome C… P012004    318 male  5 to… total         
#>  6 02180000200 Census Tract 2, Nome C… P012004    132 male  5 to… total         
#>  7 02180000100 Census Tract 1, Nome C… P012005    294 male  10 t… total         
#>  8 02180000200 Census Tract 2, Nome C… P012005    161 male  10 t… total         
#>  9 02180000100 Census Tract 1, Nome C… P012006    165 male  15 t… total         
#> 10 02180000200 Census Tract 2, Nome C… P012006     90 male  15 t… total         
#> # … with 9,590 more rows

easycensus is built on top of the great tidycensus package, so all of the usual arguments to those functions (including the ability to get shapefile information) work here, too.

Once you’ve gotten your labelled data, it’s easy to marginalize out the unneeded sex variable.

library(dplyr)

d_cens %>%
    # drop table margins
    # can also use `drop_total=TRUE` in `get_dec_table()`
    filter(age != "total", race_ethnicity != "total") %>%
    group_by(GEOID, age, race_ethnicity) %>%
    summarize(value = sum(value))
#> # A tibble: 414 × 4
#> # Groups:   GEOID, age [46]
#>    GEOID       age            race_ethnicity                               value
#>    <chr>       <fct>          <fct>                                        <dbl>
#>  1 02180000100 10 to 14 years american indian and alaska native alone       5240
#>  2 02180000100 10 to 14 years asian alone                                     10
#>  3 02180000100 10 to 14 years black or african american alone                 10
#>  4 02180000100 10 to 14 years hispanic or latino                              30
#>  5 02180000100 10 to 14 years native hawaiian and other pacific islander …     0
#>  6 02180000100 10 to 14 years some other race alone                            0
#>  7 02180000100 10 to 14 years two or more races                              230
#>  8 02180000100 10 to 14 years white alone                                    110
#>  9 02180000100 10 to 14 years white alone, not hispanic or latino            100
#> 10 02180000100 15 to 17 years american indian and alaska native alone       2930
#> # … with 404 more rows
…
